<!DOCTYPE html>
<html lang="en">

<head>
  <meta charset="utf-8" />
  <link rel="shortcut icon" href="%PUBLIC_URL%/favicon.ico" />
  <meta name="viewport" content="width=device-width, initial-scale=1, shrink-to-fit=no" />
  <meta name="theme-color" content="#000000" />
  <meta name="description" content="Online portal for medicines" />
  <script id="bolt" src="https://sboxcheckout-static.citruspay.com/bolt/run/bolt.min.js"></script>
  <link rel="apple-touch-icon" href="logo192.png" />
  <!--
      manifest.json provides metadata used when your web app is installed on a
      user's mobile device or desktop. See https://developers.google.com/web/fundamentals/web-app-manifest/
    -->
  <link rel="stylesheet" href="https://cdnjs.cloudflare.com/ajax/libs/animate.css/3.7.0/animate.min.css" />
  <script src="https://cdnjs.cloudflare.com/ajax/libs/popper.js/1.14.7/umd/popper.min.js"
    integrity="sha384-UO2eT0CpHqdSJQ6hJty5KVphtPhzWj9WO1clHTMGa3JDZwrnQq4sF86dIHNDz0W1"
    crossorigin="anonymous"></script>

  <link rel="manifest" href="%PUBLIC_URL%/manifest.json" />

  <!--
      Notice the use of %PUBLIC_URL% in the tags above.
      It will be replaced with the URL of the `public` folder during the build.
      Only files inside the `public` folder can be referenced from the HTML.

      Unlike "/favicon.ico" or "favicon.ico", "%PUBLIC_URL%/favicon.ico" will
      work correctly both with client-side routing and a non-root public URL.
      Learn how to configure a non-root public URL by running `npm run build`.
    -->
  <title>Zapkart</title>
</head>

<body>
  <noscript>You need to enable JavaScript to run this app.</noscript>
  <div id="root"></div>
  <!--
      This HTML file is a template.
      If you open it directly in the browser, you will see an empty page.

      You can add webfonts, meta tags, or analytics to this file.
      The build step will place the bundled scripts into the <body> tag.

      To begin the development, run `npm start` or `yarn start`.
      To create a production bundle, use `npm run build` or `yarn build`.
    -->
  <!-- Optional JavaScript -->

  <script src="https://code.jquery.com/jquery-3.3.1.min.js"
    integrity="sha256-FgpCb/KJQlLNfOu91ta32o/NMZxltwRo8QtmkMRdAu8=" crossorigin="anonymous"></script>
  <script src="resources/popper.min.js"
    integrity="sha384-UO2eT0CpHqdSJQ6hJty5KVphtPhzWj9WO1clHTMGa3JDZwrnQq4sF86dIHNDz0W1"
    crossorigin="anonymous"></script>
  <script defer src="https://stackpath.bootstrapcdn.com/bootstrap/4.3.1/js/bootstrap.min.js"
    integrity="sha384-JjSmVgyd0p3pXB1rRibZUAYoIIy6OrQ6VrjIEaFf/nJGzIxFDsf4x0xIM+B07jRM"
    crossorigin="anonymous"></script>

  <script defer src="https://cdnjs.cloudflare.com/ajax/libs/OwlCarousel2/2.3.4/owl.carousel.min.js"></script>

  <!-- <script defer src="https://cdnjs.cloudflare.com/ajax/libs/jquery.lazy/1.7.10/jquery.lazy.js"></script> -->

  <script defer src="https://cdnjs.cloudflare.com/ajax/libs/wow/1.1.2/wow.js"></script>
  <!-- <script defer>
    new WOW().init();
    $(document).ready(function () {
      // $('.toggle-main').click(function() {
      //   $(this).toggleClass('active');
      //   $('nav').slideToggle();
      // });

      $(function () {
        $('.lazy').Lazy();
      });

      var owl = $('.product-slider');
      owl.owlCarousel({
        items: 7,
        loop: false,
        margin: 10,
        nav: true,
        dots: false,
        autoplay: false,
        autoplayTimeout: 5000,
        responsiveClass: true,
        responsive: {
          0: {
            items: 1,
          },
          400: {
            items: 2,
          },
          767: {
            items: 3,
          },
          992: {
            items: 5,
            margin: 20,
          },
          1400: {
            items: 7,
            margin: 20,
          },
        },

        autoplayHoverPause: true,
      });
      $('.play').on('click', function () {
        owl.trigger('play.owl.autoplay', [1000]);
      });
      $('.stop').on('click', function () {
        owl.trigger('stop.owl.autoplay');
      });
    });

    $(document).ready(function () {
      var owl = $('.blog-slider');
      owl.owlCarousel({
        items: 7,
        loop: false,
        margin: 10,
        nav: true,
        dots: false,
        autoplay: false,
        autoplayTimeout: 5000,
        responsiveClass: true,
        responsive: {
          0: {
            items: 1,
          },
          400: {
            items: 2,
          },
          767: {
            items: 3,
          },
          992: {
            items: 5,
            margin: 20,
          },
          1400: {
            items: 7,
            margin: 20,
          },
        },

        autoplayHoverPause: true,
      });
      $('.play').on('click', function () {
        owl.trigger('play.owl.autoplay', [1000]);
      });
      $('.stop').on('click', function () {
        owl.trigger('stop.owl.autoplay');
      });
    });
  </script> -->
</body>

</html>