{
    "addressData": [
        {
            "addressType": "home",
            "id": "1",
            "name": "Alias Paul",
            "phoneNo": "9746754664",
            "address": "Densons building, Marottichodu junction, Edapally toll, Ernakulam, Kerala ",
            "pincode": "682024"
        },
        {
            "addressType": "home",
            "id": "2",
            "name": "Alias Paul",
            "phoneNo": "9746754664",
            "address": "Densons building, Marottichodu junction, Edapally toll, Thrissur, Kerala ",
            "pincode": "682025"
        },
        {
            "addressType": "home",
            "id": "3",
            "name": "Alias Paul",
            "phoneNo": "9746754664",
            "address": "Densons building, Marottichodu junction, Edapally toll, Muvattupuzha, Kerala ",
            "pincode": "682012"
        },
        {
            "addressType": "home",
            "id": "4",
            "name": "Alias Paul",
            "phoneNo": "9746754664",
            "address": "Densons building, Marottichodu junction, Edapally toll, Ernakulam, Kerala ",
            "pincode": "682011"
        },
        {
            "addressType": "home",
            "id": "5",
            "name": "Alias Paul",
            "phoneNo": "9746754664",
            "address": "Densons building, Marottichodu junction, Edapally toll, Ernakulam, Kerala ",
            "pincode": "682029"
        },
        {
            "addressType": "home",
            "id": "6",
            "name": "Alias Paul",
            "phoneNo": "9746754664",
            "address": "Densons building, Marottichodu junction, Edapally toll, Ernakulam, Kerala ",
            "pincode": "682025"
        },
        {
            "addressType": "home",
            "id": "7",
            "name": "Alias Paul",
            "phoneNo": "9746754664",
            "address": "Densons building, Marottichodu junction, Edapally toll, Ernakulam, Kerala ",
            "pincode": "682026"
        },
        {
            "addressType": "home",
            "id": "8",
            "name": "Alias Paul",
            "phoneNo": "9746754664",
            "address": "Densons building, Marottichodu junction, Edapally toll, Ernakulam, Kerala ",
            "pincode": "682027"
        }
    ]
}