{
    "data": [
       
        {
            "title": "Categories",
            "key":"b",
            "children": [
                {
                    "title": "Copd Asthma Care",
                    "key":"1"
                },
                {
                    "title": "Ayurvedic Homeopathy",
                    "key":"2"
                },
                {
                    "title": "Cardiac Care and BP",
                    "key":"3"
                },
                {
                    "title": "Diabetes",
                    "key":"4"
                },
                {
                    "title": "Fertility & Gynecology",
                    "key":"5"
                },
                {
                    "title": "Medical Devices",
                    "key":"6"
                },
                {
                    "title": "Mother & Baby",
                    "key":"7"
                },
                {
                    "title": "Personal Hygiene & Cosmetics",
                    "key":"8"
                },
                {
                    "title": "Prescription",
                    "key":"9"
                },
                {
                    "title": "Senior Care",
                    "key":"10"
                },
                {
                    "title": "Dietary Supplement",
                    "key":"11"
                }
            ]
        },
        {
            "title": "Other Categoriies",
            "key":"c",
            "children": [
                {
                    "title": "Cough & Cold",
                    "key":"1"
                },
                {
                    "title": "Patanjali",
                    "key":"2"
                },
                {
                    "title": "Sexual Wellness",
                    "key":"3"
                },
                {
                    "title": "Pain Relief",
                    "key":"4"
                },
                {
                    "title": "Eye & Ear Care",
                    "key":"5"
                },
                {
                    "title": "Elderly Care",
                    "key":"6"
                },
                {
                    "title": "Stomach Care",
                    "key":"7"
                }
            ]
        }
    ]
}